<?xml version="1.0" encoding="UTF-8" standalone="no"?>
<svg
   xmlns:dc="http://purl.org/dc/elements/1.1/"
   xmlns:cc="http://creativecommons.org/ns#"
   xmlns:rdf="http://www.w3.org/1999/02/22-rdf-syntax-ns#"
   xmlns:svg="http://www.w3.org/2000/svg"
   xmlns="http://www.w3.org/2000/svg"
   xmlns:sodipodi="http://sodipodi.sourceforge.net/DTD/sodipodi-0.dtd"
   xmlns:inkscape="http://www.inkscape.org/namespaces/inkscape"
   version="1.1"
   x="0px"
   y="0px"
   viewBox="0 0 100 125"
   xml:space="preserve"
   id="svg22"
   sodipodi:docname="presentation-green.svg"
   inkscape:version="0.92.4 (5da689c313, 2019-01-14)"><metadata
     id="metadata28"><rdf:RDF><cc:Work
         rdf:about=""><dc:format>image/svg+xml</dc:format><dc:type
           rdf:resource="http://purl.org/dc/dcmitype/StillImage" /><dc:title></dc:title></cc:Work></rdf:RDF></metadata><defs
     id="defs26" /><sodipodi:namedview
     pagecolor="#ffffff"
     bordercolor="#666666"
     borderopacity="1"
     objecttolerance="10"
     gridtolerance="10"
     guidetolerance="10"
     inkscape:pageopacity="0"
     inkscape:pageshadow="2"
     inkscape:window-width="1680"
     inkscape:window-height="986"
     id="namedview24"
     showgrid="false"
     inkscape:zoom="1.888"
     inkscape:cx="51.059322"
     inkscape:cy="62.5"
     inkscape:window-x="1920"
     inkscape:window-y="27"
     inkscape:window-maximized="1"
     inkscape:current-layer="svg22" /><g
     id="g16"
     style="fill:#27a822;fill-opacity:1"><path
       d="M97.036,6.342H2.967C1.324,6.342,0,7.618,0,9.205v56.35c0,1.578,1.323,2.858,2.967,2.858h94.069   c1.642,0,2.964-1.28,2.964-2.858V9.205C100,7.618,98.678,6.342,97.036,6.342z M93.104,61.516H6.897V13.239h86.207V61.516z"
       id="path2"
       style="fill:#27a822;fill-opacity:1" /><rect
       x="51.725"
       y="47.723"
       width="20.689"
       height="3.447"
       id="rect4"
       style="fill:#27a822;fill-opacity:1" /><rect
       x="51.725"
       y="40.826"
       width="31.035"
       height="3.449"
       id="rect6"
       style="fill:#27a822;fill-opacity:1" /><rect
       x="51.725"
       y="20.135"
       width="31.035"
       height="6.897"
       id="rect8"
       style="fill:#27a822;fill-opacity:1" /><rect
       x="51.725"
       y="33.929"
       width="31.035"
       height="3.448"
       id="rect10"
       style="fill:#27a822;fill-opacity:1" /><path
       d="M27.587,47.723c7.617,0,13.792-6.176,13.792-13.793c0-7.618-6.175-13.794-13.792-13.794s-13.793,6.176-13.793,13.794   C13.793,41.546,19.97,47.723,27.587,47.723z M28.587,34.929h11.754c-0.486,6.258-5.496,11.268-11.754,11.754V34.929z"
       id="path12"
       style="fill:#27a822;fill-opacity:1" /><polygon
       points="44.379,71.861 27.139,96 34.035,96 48.277,76.062 48.277,96 55.173,96 55.173,76.062 69.414,96 76.311,96    59.07,71.861  "
       id="polygon14"
       style="fill:#27a822;fill-opacity:1" /></g><text
     x="0"
     y="115"
     fill="#000000"
     font-size="5px"
     font-weight="bold"
     font-family="'Helvetica Neue', Helvetica, Arial-Unicode, Arial, Sans-serif"
     id="text18">Created by Joris Hoogendoorn</text>
<text
     x="0"
     y="120"
     fill="#000000"
     font-size="5px"
     font-weight="bold"
     font-family="'Helvetica Neue', Helvetica, Arial-Unicode, Arial, Sans-serif"
     id="text20">from the Noun Project</text>
</svg>